Get Started with landscapemetrics
…
1
landscape
NA
NA
landscape metric
x

# Import raster
landscape_raster <- landscape
# for local file: raster("pathtoyourraster/raster.asc")
# ... or any other raster file type, geotiff, ...

# Calculate e.g. perimeter of all patches
lsm_p_perim(landscape_raster)
#> # A tibble: 27 x 6
#>    layer level class    id metric value
#>    <int> <chr> <int> <int> <chr>  <dbl>
#>  1     1 patch     1     1 perim      4
#>  2     1 patch     1     2 perim    130
#>  3     1 patch     1     3 perim     12
#>  4     1 patch     1     4 perim     20
#>  5     1 patch     1     5 perim      4
#>  6     1 patch     1     6 perim     10
#>  7     1 patch     1     7 perim      4
#>  8     1 patch     1     8 perim      4
#>  9     1 patch     1     9 perim      8
#> 10     1 patch     2    10 perim     38
#> # ... with 17 more rows
…
Use multiple metric functions

As the result of every function always returns a tibble, combining the metrics that were selected for your research question is straightforward:

# bind results from different metric functions
patch_metrics <- bind_rows(
  lsm_p_cai(landscape),
  lsm_p_circle(landscape),
  lsm_p_enn(landscape)
  )
# look at the results
patch_metrics 
#> # A tibble: 81 x 6
#>    layer level class    id metric value
#>    <int> <chr> <int> <int> <chr>  <dbl>
#>  1     1 patch     1     1 cai      0  
#>  2     1 patch     1     2 cai     48.0
#>  3     1 patch     1     3 cai      0  
#>  4     1 patch     1     4 cai     14.3
#>  5     1 patch     1     5 cai      0  
#>  6     1 patch     1     6 cai      0  
#>  7     1 patch     1     7 cai      0  
#>  8     1 patch     1     8 cai      0  
#>  9     1 patch     1     9 cai      0  
#> 10     1 patch     2    10 cai     31.4
#> # ... with 71 more rows
…
All metrics are abbreviated in the result tibble. Therefore, we provide a tibble containing the full metric names, as well as the class of each metric (lsm_abbreviations_names). Using e.g. the left_join() function of the dplyr package one could join a result tibble and the abbrevations tibble.

# bind results from different metric functions
patch_metrics <- bind_rows(
  lsm_p_cai(landscape),
  lsm_p_circle(landscape),
  lsm_p_enn(landscape)
  )
# look at the results
patch_metrics_full_names <- dplyr::left_join(x = patch_metrics,
                                             y = lsm_abbreviations_names, 
                                             by = "metric")
patch_metrics_full_names
#> # A tibble: 81 x 8
#>    layer level class    id metric value full_name       type            
#>    <int> <chr> <int> <int> <chr>  <dbl> <chr>           <chr>           
#>  1     1 patch     1     1 cai      0   core area index core area metric
#>  2     1 patch     1     2 cai     48.0 core area index core area metric
#>  3     1 patch     1     3 cai      0   core area index core area metric
#>  4     1 patch     1     4 cai     14.3 core area index core area metric
#>  5     1 patch     1     5 cai      0   core area index core area metric
#>  6     1 patch     1     6 cai      0   core area index core area metric
#>  7     1 patch     1     7 cai      0   core area index core area metric
#>  8     1 patch     1     8 cai      0   core area index core area metric
#>  9     1 patch     1     9 cai      0   core area index core area metric
#> 10     1 patch     2    10 cai     31.4 core area index core area metric
#> # ... with 71 more rows
…
